{
  "data": [
    {
      "actor": {
        "avatar": "https://demo-static.data.gouv.fr/avatars/XXX-original.png",
        "avatar_thumbnail": "https://demo-static.data.gouv.fr/avatars/XXX-500.png",
        "class": "User",
        "first_name": "XXX",
        "id": "XXX",
        "last_name": "XXX",
        "page": "https://demo.data.gouv.fr/fr/users/XXX",
        "slug": "XXX",
        "uri": "https://demo.data.gouv.fr/api/1/users/XXX/"
      },
      "created_at": "2023-12-11T13:17:32.593000+00:00",
      "icon": "fa fa-pencil",
      "key": "organization:updated",
      "kwargs": {},
      "label": "a mis à jour une organisation",
      "organization": {
        "acronym": null,
        "badges": [],
        "class": "Organization",
        "id": "XXX",
        "logo": "https://demo-static.data.gouv.fr/avatars/XXX-original.png",
        "logo_thumbnail": "https://demo-static.data.gouv.fr/avatars/XXX-100.png",
        "name": "XXX",
        "page": "https://demo.data.gouv.fr/fr/organizations/XXX/",
        "slug": "XXX",
        "uri": "https://demo.data.gouv.fr/api/1/organizations/XXX/"
      },
      "related_to": "XXX",
      "related_to_id": "XXX",
      "related_to_kind": "Organization",
      "related_to_url": "/fr/organizations/XXX/"
    },
    {
      "actor": {
        "avatar": "https://demo-static.data.gouv.fr/avatars/XXX-original.png",
        "avatar_thumbnail": "https://demo-static.data.gouv.fr/avatars/XXX-500.png",
        "class": "User",
        "first_name": "XXX",
        "id": "XXX",
        "last_name": "XXX",
        "page": "https://demo.data.gouv.fr/fr/users/XXX",
        "slug": "XXX",
        "uri": "https://demo.data.gouv.fr/api/1/users/XXX/"
      },
      "created_at": "2023-12-11T13:17:32.574000+00:00",
      "icon": "fa fa-pencil",
      "key": "dataset:updated",
      "kwargs": {},
      "label": "a mis à jour un jeu de données",
      "organization": {
        "acronym": null,
        "badges": [],
        "class": "Organization",
        "id": "XXX",
        "logo": "https://demo-static.data.gouv.fr/avatars/XXX-original.png",
        "logo_thumbnail": "https://demo-static.data.gouv.fr/avatars/XXX-100.png",
        "name": "XXX",
        "page": "https://demo.data.gouv.fr/fr/organizations/XXX/",
        "slug": "XXX",
        "uri": "https://demo.data.gouv.fr/api/1/organizations/XXX/"
      },
      "related_to": "XXX",
      "related_to_id": "XXX",
      "related_to_kind": "Dataset",
      "related_to_url": "/fr/datasets/XXX/"
    },
    {
      "actor": {
        "avatar": null,
        "avatar_thumbnail": null,
        "class": "User",
        "first_name": "XXX",
        "id": "XXX",
        "last_name": "XXX",
        "page": "https://demo.data.gouv.fr/fr/users/XXX",
        "slug": "XXX",
        "uri": "https://demo.data.gouv.fr/api/1/users/XXX/"
      },
      "created_at": "2023-12-11T11:52:23.682000+00:00",
      "icon": "fa fa-pencil",
      "key": "dataset:updated",
      "kwargs": {},
      "label": "a mis à jour un jeu de données",
      "organization": {
        "acronym": null,
        "badges": [],
        "class": "Organization",
        "id": "XXX",
        "logo": "https://demo-static.data.gouv.fr/avatars/XXX-original.png",
        "logo_thumbnail": "https://demo-static.data.gouv.fr/avatars/XXX-100.png",
        "name": "XXX",
        "page": "https://demo.data.gouv.fr/fr/organizations/XXX/",
        "slug": "XXX",
        "uri": "https://demo.data.gouv.fr/api/1/organizations/XXX/"
      },
      "related_to": "XXX",
      "related_to_id": "XXX",
      "related_to_kind": "Dataset",
      "related_to_url": "/fr/datasets/XXX/"
    },
    {
      "actor": {
        "avatar": null,
        "avatar_thumbnail": null,
        "class": "User",
        "first_name": "XXX",
        "id": "XXX",
        "last_name": "XXX",
        "page": "https://demo.data.gouv.fr/fr/users/XXX",
        "slug": "XXX",
        "uri": "https://demo.data.gouv.fr/api/1/users/XXX/"
      },
      "created_at": "2023-12-11T11:52:23.619000+00:00",
      "icon": "fa fa-pencil",
      "key": "dataset:updated",
      "kwargs": {},
      "label": "a mis à jour un jeu de données",
      "organization": {
        "acronym": null,
        "badges": [],
        "class": "Organization",
        "id": "XXX",
        "logo": "https://demo-static.data.gouv.fr/avatars/XXX-original.png",
        "logo_thumbnail": "https://demo-static.data.gouv.fr/avatars/XXX-100.png",
        "name": "XXX",
        "page": "https://demo.data.gouv.fr/fr/organizations/XXX/",
        "slug": "XXX",
        "uri": "https://demo.data.gouv.fr/api/1/organizations/XXX/"
      },
      "related_to": "XXX",
      "related_to_id": "XXX",
      "related_to_kind": "Dataset",
      "related_to_url": "/fr/datasets/XXX/"
    },
    {
      "actor": {
        "avatar": null,
        "avatar_thumbnail": null,
        "class": "User",
        "first_name": "XXX",
        "id": "XXX",
        "last_name": "XXX",
        "page": "https://demo.data.gouv.fr/fr/users/XXX",
        "slug": "XXX",
        "uri": "https://demo.data.gouv.fr/api/1/users/XXX/"
      },
      "created_at": "2023-12-11T11:52:23.524000+00:00",
      "icon": "fa fa-pencil",
      "key": "dataset:updated",
      "kwargs": {},
      "label": "a mis à jour un jeu de données",
      "organization": {
        "acronym": null,
        "badges": [],
        "class": "Organization",
        "id": "XXX",
        "logo": "https://demo-static.data.gouv.fr/avatars/XXX-original.png",
        "logo_thumbnail": "https://demo-static.data.gouv.fr/avatars/XXX-100.png",
        "name": "XXX",
        "page": "https://demo.data.gouv.fr/fr/organizations/XXX/",
        "slug": "XXX",
        "uri": "https://demo.data.gouv.fr/api/1/organizations/XXX/"
      },
      "related_to": "XXX",
      "related_to_id": "XXX",
      "related_to_kind": "Dataset",
      "related_to_url": "/fr/datasets/XXX/"
    },
    {
      "actor": {
        "avatar": null,
        "avatar_thumbnail": null,
        "class": "User",
        "first_name": "XXX",
        "id": "XXX",
        "last_name": "XXX",
        "page": "https://demo.data.gouv.fr/fr/users/XXX",
        "slug": "XXX",
        "uri": "https://demo.data.gouv.fr/api/1/users/XXX/"
      },
      "created_at": "2023-12-11T11:52:23.464000+00:00",
      "icon": "fa fa-pencil",
      "key": "dataset:updated",
      "kwargs": {},
      "label": "a mis à jour un jeu de données",
      "organization": {
        "acronym": null,
        "badges": [],
        "class": "Organization",
        "id": "XXX",
        "logo": "https://demo-static.data.gouv.fr/avatars/XXX-original.png",
        "logo_thumbnail": "https://demo-static.data.gouv.fr/avatars/XXX-100.png",
        "name": "XXX",
        "page": "https://demo.data.gouv.fr/fr/organizations/XXX/",
        "slug": "XXX",
        "uri": "https://demo.data.gouv.fr/api/1/organizations/XXX/"
      },
      "related_to": "XXX",
      "related_to_id": "XXX",
      "related_to_kind": "Dataset",
      "related_to_url": "/fr/datasets/XXX/"
    },
    {
      "actor": {
        "avatar": null,
        "avatar_thumbnail": null,
        "class": "User",
        "first_name": "XXX",
        "id": "XXX",
        "last_name": "XXX",
        "page": "https://demo.data.gouv.fr/fr/users/XXX",
        "slug": "XXX",
        "uri": "https://demo.data.gouv.fr/api/1/users/XXX/"
      },
      "created_at": "2023-12-11T11:52:23.419000+00:00",
      "icon": "fa fa-pencil",
      "key": "organization:updated",
      "kwargs": {},
      "label": "a mis à jour une organisation",
      "organization": {
        "acronym": null,
        "badges": [],
        "class": "Organization",
        "id": "XXX",
        "logo": "https://demo-static.data.gouv.fr/avatars/XXX-original.png",
        "logo_thumbnail": "https://demo-static.data.gouv.fr/avatars/XXX-100.png",
        "name": "XXX",
        "page": "https://demo.data.gouv.fr/fr/organizations/XXX/",
        "slug": "XXX",
        "uri": "https://demo.data.gouv.fr/api/1/organizations/XXX/"
      },
      "related_to": "XXX",
      "related_to_id": "XXX",
      "related_to_kind": "Organization",
      "related_to_url": "/fr/organizations/XXX/"
    },
    {
      "actor": {
        "avatar": null,
        "avatar_thumbnail": null,
        "class": "User",
        "first_name": "XXX",
        "id": "XXX",
        "last_name": "XXX",
        "page": "https://demo.data.gouv.fr/fr/users/XXX",
        "slug": "XXX",
        "uri": "https://demo.data.gouv.fr/api/1/users/XXX/"
      },
      "created_at": "2023-12-11T11:52:23.413000+00:00",
      "icon": "fa fa-pencil",
      "key": "dataset:updated",
      "kwargs": {},
      "label": "a mis à jour un jeu de données",
      "organization": {
        "acronym": null,
        "badges": [],
        "class": "Organization",
        "id": "XXX",
        "logo": "https://demo-static.data.gouv.fr/avatars/XXX-original.png",
        "logo_thumbnail": "https://demo-static.data.gouv.fr/avatars/XXX-100.png",
        "name": "XXX",
        "page": "https://demo.data.gouv.fr/fr/organizations/XXX/",
        "slug": "XXX",
        "uri": "https://demo.data.gouv.fr/api/1/organizations/XXX/"
      },
      "related_to": "XXX",
      "related_to_id": "XXX",
      "related_to_kind": "Dataset",
      "related_to_url": "/fr/datasets/XXX/"
    },
    {
      "actor": {
        "avatar": null,
        "avatar_thumbnail": null,
        "class": "User",
        "first_name": "XXX",
        "id": "XXX",
        "last_name": "XXX",
        "page": "https://demo.data.gouv.fr/fr/users/XXX",
        "slug": "XXX",
        "uri": "https://demo.data.gouv.fr/api/1/users/XXX/"
      },
      "created_at": "2023-12-11T11:52:23.324000+00:00",
      "icon": "fa fa-pencil",
      "key": "organization:updated",
      "kwargs": {},
      "label": "a mis à jour une organisation",
      "organization": {
        "acronym": null,
        "badges": [],
        "class": "Organization",
        "id": "XXX",
        "logo": "https://demo-static.data.gouv.fr/avatars/XXX-original.png",
        "logo_thumbnail": "https://demo-static.data.gouv.fr/avatars/XXX-100.png",
        "name": "XXX",
        "page": "https://demo.data.gouv.fr/fr/organizations/XXX/",
        "slug": "XXX",
        "uri": "https://demo.data.gouv.fr/api/1/organizations/XXX/"
      },
      "related_to": "XXX",
      "related_to_id": "XXX",
      "related_to_kind": "Organization",
      "related_to_url": "/fr/organizations/XXX/"
    },
    {
      "actor": {
        "avatar": null,
        "avatar_thumbnail": null,
        "class": "User",
        "first_name": "XXX",
        "id": "XXX",
        "last_name": "XXX",
        "page": "https://demo.data.gouv.fr/fr/users/XXX",
        "slug": "XXX",
        "uri": "https://demo.data.gouv.fr/api/1/users/XXX/"
      },
      "created_at": "2023-12-11T11:52:23.314000+00:00",
      "icon": "fa fa-pencil",
      "key": "dataset:updated",
      "kwargs": {},
      "label": "a mis à jour un jeu de données",
      "organization": {
        "acronym": null,
        "badges": [],
        "class": "Organization",
        "id": "XXX",
        "logo": "https://demo-static.data.gouv.fr/avatars/XXX-original.png",
        "logo_thumbnail": "https://demo-static.data.gouv.fr/avatars/XXX-100.png",
        "name": "XXX",
        "page": "https://demo.data.gouv.fr/fr/organizations/XXX/",
        "slug": "XXX",
        "uri": "https://demo.data.gouv.fr/api/1/organizations/XXX/"
      },
      "related_to": "XXX",
      "related_to_id": "XXX",
      "related_to_kind": "Dataset",
      "related_to_url": "/fr/datasets/XXX/"
    },
    {
      "actor": {
        "avatar": null,
        "avatar_thumbnail": null,
        "class": "User",
        "first_name": "XXX",
        "id": "XXX",
        "last_name": "XXX",
        "page": "https://demo.data.gouv.fr/fr/users/XXX",
        "slug": "XXX",
        "uri": "https://demo.data.gouv.fr/api/1/users/XXX/"
      },
      "created_at": "2023-12-11T11:52:23.204000+00:00",
      "icon": "fa fa-pencil",
      "key": "organization:updated",
      "kwargs": {},
      "label": "a mis à jour une organisation",
      "organization": {
        "acronym": null,
        "badges": [],
        "class": "Organization",
        "id": "XXX",
        "logo": "https://demo-static.data.gouv.fr/avatars/XXX-original.png",
        "logo_thumbnail": "https://demo-static.data.gouv.fr/avatars/XXX-100.png",
        "name": "XXX",
        "page": "https://demo.data.gouv.fr/fr/organizations/XXX/",
        "slug": "XXX",
        "uri": "https://demo.data.gouv.fr/api/1/organizations/XXX/"
      },
      "related_to": "XXX",
      "related_to_id": "XXX",
      "related_to_kind": "Organization",
      "related_to_url": "/fr/organizations/XXX/"
    },
    {
      "actor": {
        "avatar": null,
        "avatar_thumbnail": null,
        "class": "User",
        "first_name": "XXX",
        "id": "XXX",
        "last_name": "XXX",
        "page": "https://demo.data.gouv.fr/fr/users/XXX",
        "slug": "XXX",
        "uri": "https://demo.data.gouv.fr/api/1/users/XXX/"
      },
      "created_at": "2023-12-11T11:52:23.198000+00:00",
      "icon": "fa fa-pencil",
      "key": "dataset:updated",
      "kwargs": {},
      "label": "a mis à jour un jeu de données",
      "organization": {
        "acronym": null,
        "badges": [],
        "class": "Organization",
        "id": "XXX",
        "logo": "https://demo-static.data.gouv.fr/avatars/XXX-original.png",
        "logo_thumbnail": "https://demo-static.data.gouv.fr/avatars/XXX-100.png",
        "name": "XXX",
        "page": "https://demo.data.gouv.fr/fr/organizations/XXX/",
        "slug": "XXX",
        "uri": "https://demo.data.gouv.fr/api/1/organizations/XXX/"
      },
      "related_to": "XXX",
      "related_to_id": "XXX",
      "related_to_kind": "Dataset",
      "related_to_url": "/fr/datasets/XXX/"
    },
    {
      "actor": {
        "avatar": null,
        "avatar_thumbnail": null,
        "class": "User",
        "first_name": "XXX",
        "id": "XXX",
        "last_name": "XXX",
        "page": "https://demo.data.gouv.fr/fr/users/XXX",
        "slug": "XXX",
        "uri": "https://demo.data.gouv.fr/api/1/users/XXX/"
      },
      "created_at": "2023-12-11T11:52:23.149000+00:00",
      "icon": "fa fa-pencil",
      "key": "organization:updated",
      "kwargs": {},
      "label": "a mis à jour une organisation",
      "organization": {
        "acronym": null,
        "badges": [],
        "class": "Organization",
        "id": "XXX",
        "logo": "https://demo-static.data.gouv.fr/avatars/XXX-original.png",
        "logo_thumbnail": "https://demo-static.data.gouv.fr/avatars/XXX-100.png",
        "name": "XXX",
        "page": "https://demo.data.gouv.fr/fr/organizations/XXX/",
        "slug": "XXX",
        "uri": "https://demo.data.gouv.fr/api/1/organizations/XXX/"
      },
      "related_to": "XXX",
      "related_to_id": "XXX",
      "related_to_kind": "Organization",
      "related_to_url": "/fr/organizations/XXX/"
    },
    {
      "actor": {
        "avatar": null,
        "avatar_thumbnail": null,
        "class": "User",
        "first_name": "XXX",
        "id": "XXX",
        "last_name": "XXX",
        "page": "https://demo.data.gouv.fr/fr/users/XXX",
        "slug": "XXX",
        "uri": "https://demo.data.gouv.fr/api/1/users/XXX/"
      },
      "created_at": "2023-12-11T11:52:23.132000+00:00",
      "icon": "fa fa-pencil",
      "key": "dataset:updated",
      "kwargs": {},
      "label": "a mis à jour un jeu de données",
      "organization": {
        "acronym": null,
        "badges": [],
        "class": "Organization",
        "id": "XXX",
        "logo": "https://demo-static.data.gouv.fr/avatars/XXX-original.png",
        "logo_thumbnail": "https://demo-static.data.gouv.fr/avatars/XXX-100.png",
        "name": "XXX",
        "page": "https://demo.data.gouv.fr/fr/organizations/XXX/",
        "slug": "XXX",
        "uri": "https://demo.data.gouv.fr/api/1/organizations/XXX/"
      },
      "related_to": "XXX",
      "related_to_id": "XXX",
      "related_to_kind": "Dataset",
      "related_to_url": "/fr/datasets/XXX/"
    },
    {
      "actor": {
        "avatar": null,
        "avatar_thumbnail": null,
        "class": "User",
        "first_name": "XXX",
        "id": "XXX",
        "last_name": "XXX",
        "page": "https://demo.data.gouv.fr/fr/users/XXX",
        "slug": "XXX",
        "uri": "https://demo.data.gouv.fr/api/1/users/XXX/"
      },
      "created_at": "2023-12-11T11:52:23.109000+00:00",
      "icon": "fa fa-pencil",
      "key": "organization:updated",
      "kwargs": {},
      "label": "a mis à jour une organisation",
      "organization": {
        "acronym": null,
        "badges": [],
        "class": "Organization",
        "id": "XXX",
        "logo": "https://demo-static.data.gouv.fr/avatars/XXX-original.png",
        "logo_thumbnail": "https://demo-static.data.gouv.fr/avatars/XXX-100.png",
        "name": "XXX",
        "page": "https://demo.data.gouv.fr/fr/organizations/XXX/",
        "slug": "XXX",
        "uri": "https://demo.data.gouv.fr/api/1/organizations/XXX/"
      },
      "related_to": "XXX",
      "related_to_id": "XXX",
      "related_to_kind": "Organization",
      "related_to_url": "/fr/organizations/XXX/"
    },
    {
      "actor": {
        "avatar": null,
        "avatar_thumbnail": null,
        "class": "User",
        "first_name": "XXX",
        "id": "XXX",
        "last_name": "XXX",
        "page": "https://demo.data.gouv.fr/fr/users/XXX",
        "slug": "XXX",
        "uri": "https://demo.data.gouv.fr/api/1/users/XXX/"
      },
      "created_at": "2023-12-11T11:52:23.100000+00:00",
      "icon": "fa fa-pencil",
      "key": "dataset:updated",
      "kwargs": {},
      "label": "a mis à jour un jeu de données",
      "organization": {
        "acronym": null,
        "badges": [],
        "class": "Organization",
        "id": "XXX",
        "logo": "https://demo-static.data.gouv.fr/avatars/XXX-original.png",
        "logo_thumbnail": "https://demo-static.data.gouv.fr/avatars/XXX-100.png",
        "name": "XXX",
        "page": "https://demo.data.gouv.fr/fr/organizations/XXX/",
        "slug": "XXX",
        "uri": "https://demo.data.gouv.fr/api/1/organizations/XXX/"
      },
      "related_to": "XXX",
      "related_to_id": "XXX",
      "related_to_kind": "Dataset",
      "related_to_url": "/fr/datasets/XXX/"
    },
    {
      "actor": {
        "avatar": null,
        "avatar_thumbnail": null,
        "class": "User",
        "first_name": "XXX",
        "id": "XXX",
        "last_name": "XXX",
        "page": "https://demo.data.gouv.fr/fr/users/XXX",
        "slug": "XXX",
        "uri": "https://demo.data.gouv.fr/api/1/users/XXX/"
      },
      "created_at": "2023-12-11T11:52:22.978000+00:00",
      "icon": "fa fa-pencil",
      "key": "organization:updated",
      "kwargs": {},
      "label": "a mis à jour une organisation",
      "organization": {
        "acronym": null,
        "badges": [],
        "class": "Organization",
        "id": "XXX",
        "logo": "https://demo-static.data.gouv.fr/avatars/XXX-original.png",
        "logo_thumbnail": "https://demo-static.data.gouv.fr/avatars/XXX-100.png",
        "name": "XXX",
        "page": "https://demo.data.gouv.fr/fr/organizations/XXX/",
        "slug": "XXX",
        "uri": "https://demo.data.gouv.fr/api/1/organizations/XXX/"
      },
      "related_to": "XXX",
      "related_to_id": "XXX",
      "related_to_kind": "Organization",
      "related_to_url": "/fr/organizations/XXX/"
    },
    {
      "actor": {
        "avatar": null,
        "avatar_thumbnail": null,
        "class": "User",
        "first_name": "XXX",
        "id": "XXX",
        "last_name": "XXX",
        "page": "https://demo.data.gouv.fr/fr/users/XXX",
        "slug": "XXX",
        "uri": "https://demo.data.gouv.fr/api/1/users/XXX/"
      },
      "created_at": "2023-12-11T11:52:22.959000+00:00",
      "icon": "fa fa-pencil",
      "key": "dataset:updated",
      "kwargs": {},
      "label": "a mis à jour un jeu de données",
      "organization": {
        "acronym": null,
        "badges": [],
        "class": "Organization",
        "id": "XXX",
        "logo": "https://demo-static.data.gouv.fr/avatars/XXX-original.png",
        "logo_thumbnail": "https://demo-static.data.gouv.fr/avatars/XXX-100.png",
        "name": "XXX",
        "page": "https://demo.data.gouv.fr/fr/organizations/XXX/",
        "slug": "XXX",
        "uri": "https://demo.data.gouv.fr/api/1/organizations/XXX/"
      },
      "related_to": "XXX",
      "related_to_id": "XXX",
      "related_to_kind": "Dataset",
      "related_to_url": "/fr/datasets/XXX/"
    },
    {
      "actor": {
        "avatar": null,
        "avatar_thumbnail": null,
        "class": "User",
        "first_name": "XXX",
        "id": "XXX",
        "last_name": "XXX",
        "page": "https://demo.data.gouv.fr/fr/users/XXX",
        "slug": "XXX",
        "uri": "https://demo.data.gouv.fr/api/1/users/XXX/"
      },
      "created_at": "2023-12-11T11:52:22.935000+00:00",
      "icon": "fa fa-pencil",
      "key": "organization:updated",
      "kwargs": {},
      "label": "a mis à jour une organisation",
      "organization": {
        "acronym": null,
        "badges": [],
        "class": "Organization",
        "id": "XXX",
        "logo": "https://demo-static.data.gouv.fr/avatars/XXX-original.png",
        "logo_thumbnail": "https://demo-static.data.gouv.fr/avatars/XXX-100.png",
        "name": "XXX",
        "page": "https://demo.data.gouv.fr/fr/organizations/XXX/",
        "slug": "XXX",
        "uri": "https://demo.data.gouv.fr/api/1/organizations/XXX/"
      },
      "related_to": "XXX",
      "related_to_id": "XXX",
      "related_to_kind": "Organization",
      "related_to_url": "/fr/organizations/XXX/"
    },
    {
      "actor": {
        "avatar": null,
        "avatar_thumbnail": null,
        "class": "User",
        "first_name": "XXX",
        "id": "XXX",
        "last_name": "XXX",
        "page": "https://demo.data.gouv.fr/fr/users/XXX",
        "slug": "XXX",
        "uri": "https://demo.data.gouv.fr/api/1/users/XXX/"
      },
      "created_at": "2023-12-11T11:52:22.929000+00:00",
      "icon": "fa fa-pencil",
      "key": "dataset:updated",
      "kwargs": {},
      "label": "a mis à jour un jeu de données",
      "organization": {
        "acronym": null,
        "badges": [],
        "class": "Organization",
        "id": "XXX",
        "logo": "https://demo-static.data.gouv.fr/avatars/XXX-original.png",
        "logo_thumbnail": "https://demo-static.data.gouv.fr/avatars/XXX-100.png",
        "name": "XXX",
        "page": "https://demo.data.gouv.fr/fr/organizations/XXX/",
        "slug": "XXX",
        "uri": "https://demo.data.gouv.fr/api/1/organizations/XXX/"
      },
      "related_to": "XXX",
      "related_to_id": "XXX",
      "related_to_kind": "Dataset",
      "related_to_url": "/fr/datasets/XXX/"
    }
  ],
  "next_page": "https://demo.data.gouv.fr/api/1/activity?page=2",
  "page": 1,
  "page_size": 20,
  "previous_page": null,
  "total": 12345
}
